{"totalHits":1614,"currentPage":1,"totalPages":1614,"pageList":[1,2,3,4,5,6,7,8,9,10],"foodSearchCriteria":{"dataType":["Foundation","SR Legacy"],"query":"raw apple","generalSearchInput":"raw apple","pageNumber":1,"numberOfResultsPerPage":50,"pageSize":1,"requireAllWords":false,"foodTypes":["Foundation","SR Legacy"]},"foods":[{"fdcId":168171,"description":"Rose-apples, raw","scientificName":"Syzygium jambos","commonNames":"","additionalDescriptions":"","dataType":"SR Legacy","ndbNumber":9312,"publishedDate":"2019-04-01","foodCategory":"Fruits and Fruit Juices","allHighlightFields":"","score":545.294,"microbes":[],"foodNutrients":[{"nutrientId":1062,"nutrientName":"Energy","nutrientNumber":"268","unitName":"kJ","value":105,"rank":400,"indentLevel":1,"foodNutrientId":1335655,"dataPoints":0},{"nutrientId":1105,"nutrientName":"Retinol","nutrientNumber":"319","unitName":"UG","derivationCode":"Z","derivationDescription":"Assumed zero (Insignificant amount or not naturally occurring in a food, such as fiber in meat)","derivationId":68,"value":0.0,"foodNutrientSourceId":5,"foodNutrientSourceCode":"7","foodNutrientSourceDescription":"Assumed zero","rank":7430,"indentLevel":2,"foodNutrientId":1335656,"dataPoints":0},{"nutrientId":1106,"nutrientName":"Vitamin A, RAE","nutrientNumber":"320","unitName":"UG","value":17.0,"rank":7420,"indentLevel":1,"foodNutrientId":1335657,"dataPoints":3},{"nutrientId":1257,"nutrientName":"Fatty acids, total trans","nutrientNumber":"605","unitName":"G","derivationCode":"Z","derivationDescription":"Assumed zero (Insignificant amount or not naturally occurring in a food, such as fiber in meat)","derivationId":68,"value":0.0,"foodNutrientSourceId":5,"foodNutrientSourceCode":"7","foodNutrientSourceDescription":"Assumed zero","rank":15400,"indentLevel":1,"foodNutrientId":1335658,"dataPoints":0},{"nutrientId":1003,"nutrientName":"Protein","nutrientNumber":"203","unitName":"G","value":0.6,"rank":600,"indentLevel":1,"foodNutrientId":1335659,"dataPoints":0},{"nutrientId":1007,"nutrientName":"Ash","nutrientNumber":"207","unitName":"G","value":0.4,"rank":1000,"indentLevel":1,"foodNutrientId":1335660,"dataPoints":0},{"nutrientId":1089,"nutrientName":"Iron, Fe","nutrientNumber":"303","unitName":"MG","value":0.07,"rank":5400,"indentLevel":1,"foodNutrientId":1335661,"dataPoints":1},{"nutrientId":1090,"nutrientName":"Magnesium, Mg","nutrientNumber":"304","unitName":"MG","value":5.0,"rank":5500,"indentLevel":1,"foodNutrientId":1335662,"dataPoints":1},{"nutrientId":1091,"nutrientName":"Phosphorus, P","nutrientNumber":"305","unitName":"MG","value":8.0,"rank":5600,"indentLevel":1,"foodNutrientId":1335663,"dataPoints":1},{"nutrientId":1093,"nutrientName":"Sodium, Na","nutrientNumber":"307","unitName":"MG","value":0.0,"rank":5800,"indentLevel":1,"foodNutrientId":1335664,"dataPoints":1},{"nutrientId":1098,"nutrientName":"Copper, Cu","nutrientNumber":"312","unitName":"MG","value":0.016,"rank":6000,"indentLevel":1,"foodNutrientId":1335665,"dataPoints":1},{"nutrientId":1101,"nutrientName":"Manganese, Mn","nutrientNumber":"315","unitName":"MG","value":0.029,"rank":6100,"indentLevel":1,"foodNutrientId":1335666,"dataPoints":1},{"nutrientId":1104,"nutrientName":"Vitamin A, IU","nutrientNumber":"318","unitName":"IU","value":339,"rank":7500,"indentLevel":1,"foodNutrientId":1335667,"dataPoints":3},{"nutrientId":1162,"nutrientName":"Vitamin C, total ascorbic acid","nutrientNumber":"401","unitName":"MG","value":22.3,"rank":6300,"indentLevel":1,"foodNutrientId":1335668,"dataPoints":4},{"nutrientId":1165,"nutrientName":"Thiamin","nutrientNumber":"404","unitName":"MG","value":0.02,"rank":6400,"indentLevel":1,"foodNutrientId":1335669,"dataPoints":0},{"nutrientId":1166,"nutrientName":"Riboflavin","nutrientNumber":"405","unitName":"MG","value":0.03,"rank":6500,"indentLevel":1,"foodNutrientId":1335670,"dataPoints":0},{"nutrientId":1178,"nutrientName":"Vitamin B-12","nutrientNumber":"418","unitName":"UG","derivationCode":"Z","derivationDescription":"Assumed zero (Insignificant amount or not naturally occurring in a food, such as fiber in meat)","derivationId":68,"value":0.0,"foodNutrientSourceId":5,"foodNutrientSourceCode":"7","foodNutrientSourceDescription":"Assumed zero","rank":7300,"indentLevel":1,"foodNutrientId":1335671,"dataPoints":0},{"nutrientId":1253,"nutrientName":"Cholesterol","nutrientNumber":"601","unitName":"MG","derivationCode":"Z","derivationDescription":"Assumed zero (Insignificant amount or not naturally occurring in a food, such as fiber in meat)","derivationId":68,"value":0.0,"foodNutrientSourceId":5,"foodNutrientSourceCode":"7","foodNutrientSourceDescription":"Assumed zero","rank":15700,"indentLevel":1,"foodNutrientId":1335672,"dataPoints":0},{"nutrientId":1004,"nutrientName":"Total lipid (fat)","nutrientNumber":"204","unitName":"G","value":0.3,"rank":800,"indentLevel":1,"foodNutrientId":1335673,"dataPoints":0},{"nutrientId":1005,"nutrientName":"Carbohydrate, by difference","nutrientNumber":"205","unitName":"G","derivationCode":"NC","derivationDescription":"Calculated","derivationId":49,"value":5.7,"foodNutrientSourceId":2,"foodNutrientSourceCode":"4","foodNutrientSourceDescription":"Calculated or imputed","rank":1110,"indentLevel":2,"foodNutrientId":1335674,"dataPoints":0},{"nutrientId":1008,"nutrientName":"Energy","nutrientNumber":"208","unitName":"KCAL","derivationCode":"NC","derivationDescription":"Calculated","derivationId":49,"value":25.0,"foodNutrientSourceId":2,"foodNutrientSourceCode":"4","foodNutrientSourceDescription":"Calculated or imputed","rank":300,"indentLevel":1,"foodNutrientId":1335675,"dataPoints":0},{"nutrientId":1051,"nutrientName":"Water","nutrientNumber":"255","unitName":"G","value":93.0,"rank":100,"indentLevel":1,"foodNutrientId":1335676,"dataPoints":1},{"nutrientId":1087,"nutrientName":"Calcium, Ca","nutrientNumber":"301","unitName":"MG","value":29.0,"rank":5300,"indentLevel":1,"foodNutrientId":1335677,"dataPoints":1},{"nutrientId":1092,"nutrientName":"Potassium, K","nutrientNumber":"306","unitName":"MG","value":123,"rank":5700,"indentLevel":1,"foodNutrientId":1335678,"dataPoints":1},{"nutrientId":1095,"nutrientName":"Zinc, Zn","nutrientNumber":"309","unitName":"MG","value":0.06,"rank":5900,"indentLevel":1,"foodNutrientId":1335679,"dataPoints":1},{"nutrientId":1167,"nutrientName":"Niacin","nutrientNumber":"406","unitName":"MG","value":0.8,"rank":6600,"indentLevel":1,"foodNutrientId":1335680,"dataPoints":0}],"finalFoodInputFoods":[],"foodMeasures":[],"foodAttributes":[],"foodAttributeTypes":[],"foodVersionIds":[]}],"aggregations":{"dataType":{"Branded":32391,"SR Legacy":1463,"Survey (FNDDS)":188,"Foundation":151,"Experimental":3},"nutrients":{}}}